<?xml version="1.0" encoding="utf-8"?>
<!-- Generator: Adobe Illustrator 16.0.0, SVG Export Plug-In . SVG Version: 6.00 Build 0)  -->
<!DOCTYPE svg PUBLIC "-//W3C//DTD SVG 1.1//EN" "http://www.w3.org/Graphics/SVG/1.1/DTD/svg11.dtd">
<svg version="1.1" id="Layer_1" xmlns="http://www.w3.org/2000/svg" xmlns:xlink="http://www.w3.org/1999/xlink" x="0px" y="0px"
	 width="161.205px" height="63px" viewBox="0 0 161.205 63" enable-background="new 0 0 161.205 63" xml:space="preserve">
<g>
	<circle fill="#70ACB0" cx="17.306" cy="42.949" r="17.306"/>
	<path fill="#E9EEEE" d="M8.205,48.041c6-0.816,9,1.538,9,1.538V38.042c0,0-5-3.653-9-1.538C8.205,40.062,8.205,45.396,8.205,48.041
		z"/>
	<path fill="#E9EEEE" d="M27.205,48.041c-6-0.816-9,1.538-9,1.538V38.042c0,0,4-3.653,9-1.538
		C27.205,40.062,27.205,45.396,27.205,48.041z"/>
	<g>
		<g>
			<path fill="none" stroke="#70ACB0" stroke-miterlimit="10" d="M41.092,17.234c-0.22-0.659-0.472-1.276-0.754-1.853"/>
			<path fill="none" stroke="#70ACB0" stroke-miterlimit="10" stroke-dasharray="3.7685,1.8842" d="M39.395,13.75
				c-5.679-8.343-18.556-5.419-20.54,5.338"/>
			<path fill="none" stroke="#70ACB0" stroke-miterlimit="10" d="M18.715,20.005c-0.078,0.641-0.119,1.307-0.119,1.997"/>
		</g>
	</g>
	<polyline fill="none" stroke="#70ACB0" stroke-miterlimit="10" points="22.926,17.406 18.596,21.734 14.268,17.406 	"/>
	<rect x="41.705" y="0.5" fill="none" stroke="#A9B1A7" stroke-miterlimit="10" width="56" height="44"/>
	<rect x="106.705" y="0.5" fill="none" stroke="#A9B1A7" stroke-miterlimit="10" width="54" height="44"/>
	<rect x="40.705" y="48.5" fill="none" stroke="#A9B1A7" stroke-miterlimit="10" width="76" height="7"/>
	<rect x="120.705" y="48.5" fill="none" stroke="#A9B1A7" stroke-miterlimit="10" width="40" height="7"/>
	<rect x="41.205" y="59" fill="#A9B1A7" width="93" height="4"/>
	<circle fill="#A9B1A7" cx="102.176" cy="21.314" r="9.895"/>
	<g>
		<g>
			<path fill="#FFFFFF" d="M98.774,26.588c-0.159,0-0.334-0.013-0.521-0.038c-0.187-0.025-0.373-0.079-0.558-0.161
				c-0.184-0.082-0.359-0.198-0.529-0.349s-0.32-0.349-0.451-0.595c-0.131-0.246-0.234-0.55-0.312-0.911
				c-0.078-0.361-0.117-0.792-0.117-1.292v-3.545c0-0.504,0.04-0.935,0.12-1.292c0.079-0.357,0.187-0.658,0.319-0.902
				c0.131-0.244,0.283-0.438,0.453-0.583s0.348-0.255,0.533-0.331c0.186-0.076,0.37-0.126,0.555-0.149
				c0.184-0.023,0.354-0.035,0.51-0.035c0.147,0,0.312,0.011,0.494,0.032c0.183,0.021,0.363,0.068,0.545,0.141
				c0.183,0.073,0.358,0.18,0.531,0.322c0.172,0.142,0.323,0.336,0.457,0.58c0.133,0.244,0.238,0.547,0.318,0.908
				c0.08,0.361,0.12,0.798,0.12,1.31v3.545c0,0.496-0.041,0.923-0.123,1.28s-0.188,0.66-0.322,0.908
				c-0.133,0.248-0.286,0.447-0.46,0.598c-0.174,0.151-0.352,0.268-0.533,0.352c-0.181,0.084-0.361,0.14-0.541,0.167
				C99.082,26.575,98.92,26.588,98.774,26.588z M98.774,25.445c0.148,0,0.279-0.025,0.391-0.076
				c0.111-0.051,0.203-0.139,0.275-0.264s0.127-0.29,0.164-0.495s0.056-0.464,0.056-0.776v-4.553c0-0.32-0.019-0.588-0.056-0.803
				s-0.092-0.388-0.164-0.519s-0.164-0.224-0.275-0.278c-0.111-0.054-0.241-0.082-0.391-0.082c-0.151,0-0.284,0.027-0.397,0.082
				c-0.112,0.055-0.207,0.147-0.28,0.278c-0.074,0.131-0.131,0.304-0.168,0.519s-0.056,0.482-0.056,0.803v4.553
				c0,0.312,0.019,0.571,0.056,0.776s0.094,0.37,0.168,0.495c0.073,0.125,0.168,0.213,0.28,0.264
				C98.49,25.42,98.623,25.445,98.774,25.445z"/>
			<path fill="#FFFFFF" d="M102.414,16.492h1.528v7.336c0,0.312,0.017,0.572,0.048,0.779c0.03,0.207,0.081,0.372,0.149,0.495
				s0.156,0.211,0.264,0.264c0.109,0.053,0.234,0.079,0.384,0.079s0.278-0.026,0.392-0.079c0.111-0.053,0.202-0.141,0.274-0.264
				c0.071-0.123,0.127-0.288,0.164-0.495c0.036-0.207,0.055-0.467,0.055-0.779v-7.336h1.513v6.932c0,0.488-0.039,0.906-0.117,1.254
				c-0.078,0.348-0.183,0.639-0.312,0.873c-0.129,0.234-0.274,0.42-0.44,0.557c-0.166,0.137-0.338,0.241-0.517,0.313
				c-0.178,0.072-0.354,0.118-0.53,0.138c-0.177,0.02-0.336,0.029-0.48,0.029s-0.303-0.01-0.477-0.029s-0.351-0.065-0.525-0.138
				c-0.176-0.073-0.346-0.177-0.51-0.313c-0.164-0.136-0.312-0.322-0.439-0.557c-0.128-0.235-0.23-0.524-0.307-0.87
				c-0.077-0.346-0.115-0.765-0.115-1.257L102.414,16.492L102.414,16.492z"/>
		</g>
	</g>
</g>
</svg>
