<?xml version="1.0" encoding="utf-8"?>
<!-- Generator: Adobe Illustrator 16.0.0, SVG Export Plug-In . SVG Version: 6.00 Build 0)  -->
<!DOCTYPE svg PUBLIC "-//W3C//DTD SVG 1.1//EN" "http://www.w3.org/Graphics/SVG/1.1/DTD/svg11.dtd">
<svg version="1.1" id="Layer_1" xmlns="http://www.w3.org/2000/svg" xmlns:xlink="http://www.w3.org/1999/xlink" x="0px" y="0px"
	 width="78.652px" height="138.297px" viewBox="0 0 78.652 138.297" enable-background="new 0 0 78.652 138.297"
	 xml:space="preserve">
<g>
	
		<rect x="38.826" y="-9.972" transform="matrix(0.8706 0.4919 -0.4919 0.8706 39.1035 -10.4003)" fill="#EF4437" width="1.001" height="158.24"/>
</g>
<g>
</g>
<g>
</g>
<g>
</g>
<g>
</g>
<g>
</g>
<g>
</g>
</svg>
