<?xml version="1.0" encoding="utf-8"?>
<!-- Generator: Adobe Illustrator 16.0.0, SVG Export Plug-In . SVG Version: 6.00 Build 0)  -->
<!DOCTYPE svg PUBLIC "-//W3C//DTD SVG 1.1//EN" "http://www.w3.org/Graphics/SVG/1.1/DTD/svg11.dtd">
<svg version="1.1" id="Layer_1" xmlns="http://www.w3.org/2000/svg" xmlns:xlink="http://www.w3.org/1999/xlink" x="0px" y="0px"
	 width="387px" height="25.409px" viewBox="0 0 387 25.409" enable-background="new 0 0 387 25.409" xml:space="preserve">
<g>
	<g>
		<defs>
			<polygon id="SVGID_1_" points="0,0 0,25 264.511,25 283.393,0 			"/>
		</defs>
		<clipPath id="SVGID_2_">
			<use xlink:href="#SVGID_1_"  overflow="visible"/>
		</clipPath>
		<g clip-path="url(#SVGID_2_)">
			<line fill="none" stroke="#70ACB0" stroke-miterlimit="10" x1="230.199" y1="64.935" x2="296.617" y2="-22.159"/>
			<line fill="none" stroke="#70ACB0" stroke-miterlimit="10" x1="220.07" y1="64.935" x2="286.488" y2="-22.159"/>
			<line fill="none" stroke="#70ACB0" stroke-miterlimit="10" x1="209.941" y1="64.935" x2="276.359" y2="-22.159"/>
			<line fill="none" stroke="#70ACB0" stroke-miterlimit="10" x1="199.812" y1="64.935" x2="266.23" y2="-22.159"/>
			<line fill="none" stroke="#70ACB0" stroke-miterlimit="10" x1="189.684" y1="64.935" x2="256.102" y2="-22.159"/>
			<line fill="none" stroke="#70ACB0" stroke-miterlimit="10" x1="179.555" y1="64.935" x2="245.973" y2="-22.159"/>
			<line fill="none" stroke="#70ACB0" stroke-miterlimit="10" x1="169.425" y1="64.935" x2="235.844" y2="-22.159"/>
			<line fill="none" stroke="#70ACB0" stroke-miterlimit="10" x1="159.296" y1="64.935" x2="225.714" y2="-22.16"/>
			<line fill="none" stroke="#70ACB0" stroke-miterlimit="10" x1="149.167" y1="64.935" x2="215.585" y2="-22.159"/>
			<line fill="none" stroke="#70ACB0" stroke-miterlimit="10" x1="139.038" y1="64.935" x2="205.457" y2="-22.159"/>
			<line fill="none" stroke="#70ACB0" stroke-miterlimit="10" x1="128.909" y1="64.935" x2="195.326" y2="-22.159"/>
			<line fill="none" stroke="#70ACB0" stroke-miterlimit="10" x1="118.78" y1="64.935" x2="185.197" y2="-22.159"/>
			<line fill="none" stroke="#70ACB0" stroke-miterlimit="10" x1="108.651" y1="64.935" x2="175.068" y2="-22.159"/>
			<line fill="none" stroke="#70ACB0" stroke-miterlimit="10" x1="98.522" y1="64.935" x2="164.939" y2="-22.159"/>
			<line fill="none" stroke="#70ACB0" stroke-miterlimit="10" x1="88.393" y1="64.935" x2="154.811" y2="-22.159"/>
			<line fill="none" stroke="#70ACB0" stroke-miterlimit="10" x1="78.264" y1="64.934" x2="144.682" y2="-22.16"/>
			<line fill="none" stroke="#70ACB0" stroke-miterlimit="10" x1="68.135" y1="64.935" x2="134.553" y2="-22.159"/>
			<line fill="none" stroke="#70ACB0" stroke-miterlimit="10" x1="58.006" y1="64.935" x2="124.424" y2="-22.159"/>
			<line fill="none" stroke="#70ACB0" stroke-miterlimit="10" x1="47.877" y1="64.935" x2="114.295" y2="-22.159"/>
			<line fill="none" stroke="#70ACB0" stroke-miterlimit="10" x1="37.748" y1="64.935" x2="104.166" y2="-22.159"/>
			<line fill="none" stroke="#70ACB0" stroke-miterlimit="10" x1="27.619" y1="64.935" x2="94.037" y2="-22.159"/>
			<line fill="none" stroke="#70ACB0" stroke-miterlimit="10" x1="17.49" y1="64.935" x2="83.907" y2="-22.159"/>
			<line fill="none" stroke="#70ACB0" stroke-miterlimit="10" x1="7.361" y1="64.935" x2="73.778" y2="-22.159"/>
			<line fill="none" stroke="#70ACB0" stroke-miterlimit="10" x1="-2.769" y1="64.935" x2="63.649" y2="-22.159"/>
			<line fill="none" stroke="#70ACB0" stroke-miterlimit="10" x1="-12.897" y1="64.935" x2="53.521" y2="-22.159"/>
			<line fill="none" stroke="#70ACB0" stroke-miterlimit="10" x1="-23.027" y1="64.935" x2="43.392" y2="-22.159"/>
			<line fill="none" stroke="#70ACB0" stroke-miterlimit="10" x1="-33.156" y1="64.935" x2="33.262" y2="-22.159"/>
			<line fill="none" stroke="#70ACB0" stroke-miterlimit="10" x1="-43.285" y1="64.935" x2="23.133" y2="-22.159"/>
			<line fill="none" stroke="#70ACB0" stroke-miterlimit="10" x1="-53.414" y1="64.935" x2="13.004" y2="-22.159"/>
			<line fill="none" stroke="#70ACB0" stroke-miterlimit="10" x1="-63.543" y1="64.935" x2="2.875" y2="-22.159"/>
			<line fill="none" stroke="#70ACB0" stroke-miterlimit="10" x1="-73.672" y1="64.935" x2="-7.254" y2="-22.159"/>
			<line fill="none" stroke="#70ACB0" stroke-miterlimit="10" x1="-83.801" y1="64.935" x2="-17.383" y2="-22.159"/>
		</g>
	</g>
	<g>
		<polygon fill="#70ACB0" points="387,25 387,0 283.155,0 264.09,25 		"/>
	</g>
</g>
<g>
</g>
<g>
</g>
<g>
</g>
<g>
</g>
<g>
</g>
<g>
</g>
</svg>
