<?xml version="1.0" encoding="UTF-8" standalone="no"?>
<svg width="40px" height="40px" viewBox="0 0 40 40" version="1.1" xmlns="http://www.w3.org/2000/svg" xmlns:xlink="http://www.w3.org/1999/xlink">
    <defs></defs>
    <g stroke="none" stroke-width="1" fill="none" fill-rule="evenodd">
        <g fill="#B3834C">
            <path d="M25,11 L25,0 L0,0 L0,40 L24.8,40 L40,40 L40,11 L25,11 L25,11 Z M23,38 L16,38 L16,28 L7,28 L7,38 L2,38 L2,2 L23,2 L23,38 L23,38 Z M38,38 L35,38 L35,31 L28,31 L28,38 L25,38 L25,13 L38,13 L38,38 L38,38 Z"></path>
            <rect x="5" y="5" width="5" height="5"></rect>
            <rect x="15" y="5" width="5" height="5"></rect>
            <rect x="5" y="20" width="5" height="5"></rect>
            <rect x="15" y="20" width="5" height="5"></rect>
            <rect x="5" y="13" width="5" height="5"></rect>
            <rect x="15" y="13" width="5" height="5"></rect>
            <rect x="26" y="16" width="4" height="4"></rect>
            <rect x="32" y="16" width="4" height="4"></rect>
            <rect x="26" y="26" width="4" height="4"></rect>
            <rect x="32" y="26" width="4" height="4"></rect>
            <rect x="26" y="21" width="4" height="4"></rect>
            <rect x="32" y="21" width="4" height="4"></rect>
        </g>
    </g>
</svg>