<?xml version="1.0" encoding="utf-8"?>
<!-- Generator: Adobe Illustrator 16.0.0, SVG Export Plug-In . SVG Version: 6.00 Build 0)  -->
<!DOCTYPE svg PUBLIC "-//W3C//DTD SVG 1.1//EN" "http://www.w3.org/Graphics/SVG/1.1/DTD/svg11.dtd">
<svg version="1.1" id="Layer_1" xmlns="http://www.w3.org/2000/svg" xmlns:xlink="http://www.w3.org/1999/xlink" x="0px" y="0px"
	 width="32px" height="32px" viewBox="0 0 32 32" enable-background="new 0 0 32 32" xml:space="preserve">
<path fill="#3A4656" d="M8,8v17h17V8H8z M17.578,12l-0.064,1.669L17.256,19h-1.242l-0.258-5.331L15.708,12H17.578z M16.643,22.696
	c-0.677,0-1.209-0.532-1.209-1.258s0.532-1.258,1.209-1.258c0.678,0,1.194,0.532,1.194,1.258S17.32,22.696,16.643,22.696z"/>
</svg>
